......
----------------------------------------------------------------------
Ran 6 tests in 0.006s

OK
Name               Stmts   Miss Branch BrPart  Cover   Missing
--------------------------------------------------------------
Diplomacy.py          60      3     40      5    92%   55, 70, 89, 35->26, 54->55, 69->70, 80->89, 84->83
TestDiplomacy.py      34      0      2      1    97%   66->exit
--------------------------------------------------------------
TOTAL                 94      3     42      6    93%
